 ID: 1
 Tipo: Bateria
 Marca: Luwin
 Categoria: Profissional
 Valor: R$16000
 Quantidade: 1
 __________________________________
 ID: 2
 Tipo: Bateria
 Marca: Tama
 Categoria: Intermediario
 Valor: R$8000
 Quantidade: 3
 __________________________________
 ID: 3
 Tipo: Bateria
 Marca: Premium
 Categoria: Iniciante
 Valor: R$800
 Quantidade: 2
 __________________________________