 ID: 1
 Tipo: Guitarra
 Marca: Fender
 Categoria: Profissional
 Valor: R$30000
 Quantidade: 2
 __________________________________
 ID: 2
 Tipo: Guitarra
 Marca: Gibson
 Categoria: Intermediario
 Valor: R$8000
 Quantidade: 1
 __________________________________
 ID: 3
 Tipo: Guitarra
 Marca: Jackson
 Categoria: Iniciante
 Valor: R$2700
 Quantidade: 3
 __________________________________