 ID: 1
 Tipo: Violino
 Marca: Eagle
 Categoria: Iniciante
 Valor: R$800
 Quantidade: 3
 __________________________________
 ID: 2
 Tipo: Violino
 Marca: Stradivarius
 Categoria: Profissional
 Valor: R$23000
 Quantidade: 3
 __________________________________
 ID: 3
 Tipo: Violino
 Marca: Rolim
 Categoria: Intermediario
 Valor: R$7000
 Quantidade: 3
 __________________________________